38
 generated by VMD
  Ar         4.580920       -2.531410        2.845100
  Ar        -5.088370        1.939660        2.415310
  Ar        -3.240940       -0.982313       -3.104610
  Ar         1.570290       -3.207020       -2.890750
  Ar         0.582391        1.802420        5.647970
  Ar        -2.441200       -5.098800        1.878890
  Ar        -4.580920        2.531410       -2.845100
  Ar         2.920130       -0.521852       -5.166040
  Ar        -1.570290        3.207020        2.890750
  Ar         4.598920        3.687870        0.858498
  Ar        -0.582391       -1.802420       -5.647970
  Ar        -1.902760        1.708250       -5.380410
  Ar        -3.743560        4.631160        0.159845
  Ar         1.933750        4.507040        3.381520
  Ar         5.088370       -1.939660       -2.415310
  Ar         5.925720        0.160089        0.589640
  Ar         2.441200        5.098800       -1.878890
  Ar         1.599770        2.988820       -4.898480
  Ar        -0.223973        5.917970        0.644123
  Ar        -1.064060        3.797350       -2.356940
  Ar         3.747170        1.572640       -2.143080
  Ar        -2.920130        0.521852        5.166040
  Ar        -1.933750       -4.507040       -3.381520
  Ar        -5.925720       -0.160089       -0.589640
  Ar         1.902760       -1.708250        5.380410
  Ar         3.743560       -4.631160       -0.159845
  Ar        -3.747170       -1.572640        2.143080
  Ar        -4.598920       -3.687870       -0.858498
  Ar         0.223973       -5.917970       -0.644123
  Ar         1.064060       -3.797350        2.356940
  Ar        -1.599770       -2.988820        4.898480
  Ar         1.084150        2.380410        0.372363
  Ar         3.240940        0.982313        3.104610
  Ar         0.252114        0.294000       -2.613500
  Ar         2.396130       -1.107970        0.106507
  Ar        -2.396130        1.107970       -0.106507
  Ar        -0.252114       -0.294000        2.613500
  Ar        -1.084150       -2.380410       -0.372363
