      38
 i =      33, E =       -0.0621020546
 Ar         4.4886312730       -2.6285524936        2.9035090447
 Ar        -3.6524659404        4.7045666686        0.1182136915
 Ar        -3.2153468811       -0.9106275615       -3.1527025590
 Ar         1.5470840841       -3.2313497712       -2.8761321786
 Ar         0.5377318678        1.7780213544        5.6601188612
 Ar        -2.5687711743       -5.0531964300        1.8314106583
 Ar        -4.4886301466        2.6285522304       -2.9035092868
 Ar         2.9823884794       -0.5686530669       -5.1253736844
 Ar        -1.5470829578        3.2313495081        2.8761319365
 Ar         4.6587807975        3.5934823460        0.9328018572
 Ar        -0.5377307415       -1.7780216175       -5.6601191033
 Ar        -1.7915842711        1.7576968165       -5.4026060357
 Ar        -5.0825858010        2.0354824618        2.3476878971
 Ar         1.9748164471        4.4601164001        3.4197862585
 Ar         5.0825869273       -2.0354827250       -2.3476881392
 Ar         5.9187410457        0.0405309019        0.6740396942
 Ar         2.5687723006        5.0531961668       -1.8314109004
 Ar         1.7285439867        2.9670671871       -4.8678604842
 Ar        -0.1151949208        5.9198303006        0.6555644592
 Ar        -0.9545562648        3.8229959425       -2.3623673975
 Ar         3.8078746407        1.5022707334       -2.0857970245
 Ar        -2.9823873531        0.5686528037        5.1253734423
 Ar        -1.9748153207       -4.4601166634       -3.4197865006
 Ar        -5.9187399194       -0.0405311651       -0.6740399363
 Ar         1.7915853974       -1.7576970796        5.4026057936
 Ar         3.6524670667       -4.7045669318       -0.1182139336
 Ar        -3.8078735144       -1.5022709966        2.0857967824
 Ar        -4.6587796711       -3.5934826092       -0.9328020993
 Ar         0.1151960471       -5.9198305638       -0.6555647013
 Ar         0.9545573910       -3.8229962057        2.3623671554
 Ar        -1.7285428603       -2.9670674504        4.8678602421
 Ar         1.1259404441        2.3574808482        0.3936113734
 Ar         3.2153480074        0.9106272984        3.1527023169
 Ar         0.2950927651        0.2946555516       -2.6089229524
 Ar         2.3718272225       -1.1557884458        0.1377384344
 Ar        -2.3718260962        1.1557881826       -0.1377386765
 Ar        -0.2950916388       -0.2946558147        2.6089227103
 Ar        -1.1259393178       -2.3574811113       -0.3936116156
